Stokrdtka Sp 2 0.0.

20-209 111111. ul. Projektuua 1
Supermarket Stokrotka 252
87~100 Toruﬁ. ul. Bronieuskiego 99

NIP 712-10-03-323

2115-15-13 232855
PHRRGDN 113111111

 
    
   

111111113 10111-11111 3311 1 x2,19‘2.,~19n
1311011 1111115 171; ~ 1 x1,59 1,5911
11111111111 11110511 1111111 11 1 112.29 2.2911
1111111111131 1111 111111111  1 1111.211 11,2111
5111211112 1111111111111. 11 211.27
~ P1u1123.1111z 3,79
SUMH PIU 3,79
5111111 PLN  211,27

11111111   1
E1£9nc7o111cEF%Boa2112557£31

2§E? a1r 10251892 ‘2"F21BE
Hr $gs."0774?B ‘

1111111 . "    
 111111111 T1   PLN