THn1 u0K

%  [EDIE IRRRSY
ul.Zkola S9, 0@w120 Narszaua
HHNNH BRUSIKIEHICZ
ul. Lerxha 14R
®2~992 Narszaua
NIP 113*093~93~19  
Z®15w©Zv1B 76307
PRRHGON FISKRLNV
M.Pad Ihai kreuetk.B 1 x2B,9@ 26,908
SPRZEDHZ OPODHYKOHRNR B Zb,H0
PIU B 8,00 2 1,99
SUHR PTU 1,99
SUMR PLN Z6 , 90

W515?g3?§4e9caggzégngaaagéooo395;3iS?
mi       ms :
E 395 mseeaa ”