CICZCI

3 CCC 5.0. u|.Strefoua 5. 59-101 Polkouite

WWW. CCC. GL1
. Salon Firmouy CCC
Bydgoszcz, Salon 444

1 85*097 Bydgoszcz, u1. Jagieloﬁska 39~47

NIP 592~22-00—609

 2o15~o5-oa nr u7dr.061088

PARAGON FISKALNY

I 2220324440377 JENNY FAIRY N123DS1825‘1 (

1 par ¥ 59.99 = 59.99 9
RHBHT 30.01% DU ' A
2220324440377 JENNY ERJRY N123DS1625-1 (
'18.00 A
2220324580370 JENNY FHJRY H123D51562*3 1

1 par Y 49,99 = 49,99 A
RHBNT 30.01% 00
2220324580370 JENNY EHIRY N123DS1662-3 (

-15,00 A
Sprzed. opod. PTU 0 78,98
Kuota A 23.00% 14,39
Podatek PTU ' 14,39
SUMJ1 PLN 76,98
0083/0415 N01 14:01

18N90~UPC1P"K9NZ6*N4PNH~9ULﬂ4
NEE’ BEE 13408518

Numer '3!vE_ -~ A P037181
Zaptacono karts’ 76,98